<?xml version="1.0" encoding="UTF-8"?>
<robot generator="Robot 7.2.2 (Python 3.13.2 on darwin)" generated="2025-05-12T13:53:51.469338" rpa="false" schemaversion="5">
<suite id="s1" name="Robotframework-Qa-Demo" source="/Users/juhojaatinen/robotframework-qa-demo">
<suite id="s1-s1" name="Fhir" source="/Users/juhojaatinen/robotframework-qa-demo/fhir.robot">
<test id="s1-s1-t1" name="Validate FHIR Appointment Resource" line="10">
<kw name="Create Session" owner="RequestsLibrary">
<msg time="2025-05-12T13:53:51.508796" level="INFO">Creating Session using : alias=fhir, url=https://fhir.simplifier.net/R4, headers={},                     cookies={}, auth=None, timeout=None, proxies=None, verify=False,                     debug=0 </msg>
<arg>fhir</arg>
<arg>${FHIR_BASE}</arg>
<arg>verify=False</arg>
<doc>Create Session: create a HTTP session to a server</doc>
<status status="PASS" start="2025-05-12T13:53:51.508702" elapsed="0.000168"/>
</kw>
<kw name="Create Dictionary" owner="BuiltIn">
<msg time="2025-05-12T13:53:51.509053" level="INFO">${hdrs} = {'Accept': 'application/fhir+json'}</msg>
<var>${hdrs}</var>
<arg>Accept=application/fhir+json</arg>
<doc>Creates and returns a dictionary based on the given ``items``.</doc>
<status status="PASS" start="2025-05-12T13:53:51.508953" elapsed="0.000114"/>
</kw>
<kw name="GET On Session" owner="RequestsLibrary">
<msg time="2025-05-12T13:53:51.913066" level="INFO">GET Request : url=https://fhir.simplifier.net/R4/Appointment/f7bf2300-912c-4dd0-ae92-84ab50396dbe 
 path_url=/R4/Appointment/f7bf2300-912c-4dd0-ae92-84ab50396dbe 
 headers={'User-Agent': 'python-requests/2.32.3', 'Accept-Encoding': 'gzip, deflate', 'Accept': 'application/fhir+json', 'Connection': 'keep-alive'} 
 body=None 
 </msg>
<msg time="2025-05-12T13:53:51.913463" level="INFO">GET Response : url=https://fhir.simplifier.net/R4/Appointment/f7bf2300-912c-4dd0-ae92-84ab50396dbe 
 status=200, reason=OK 
 headers={'Content-Length': '4277', 'Content-Type': 'application/fhir+json; charset=utf-8', 'Date': 'Mon, 12 May 2025 10:53:51 GMT', 'Server': 'Microsoft-IIS/10.0', 'ETag': 'W/"1"', 'Last-Modified': 'Thu, 17 Apr 2025 05:50:14 GMT', 'Location': 'https://fhir.simplifier.net/R4/Appointment/f7bf2300-912c-4dd0-ae92-84ab50396dbe/_history/1', 'Set-Cookie': 'ARRAffinity=76fd3b268e3639ef5cc726b99114e20afacd63341ee4df2a9e89cb8ea1f3ed4a;Path=/;HttpOnly;Secure;Domain=fhir.simplifier.net, ARRAffinitySameSite=76fd3b268e3639ef5cc726b99114e20afacd63341ee4df2a9e89cb8ea1f3ed4a;Path=/;HttpOnly;SameSite=None;Secure;Domain=fhir.simplifier.net', 'Request-Context': 'appId=cid-v1:1f2583d5-0901-4603-9e51-55bfcc1ec83d', 'X-Powered-By': 'ASP.NET', 'Content-Security-Policy': "script-src 'self' https://*.google.com https://js.monitor.azure.com https://www.googleapis.com https://www.googletagmanager.com https://www.google-analytics.com https://*.msecnd.net 'unsafe-inline' 'unsafe-eval'; object-src 'none';", 'X-XSS-Protection': '1; mode=block', 'X-Content-Type-Options': 'nosniff'} 
 body={
  "resourceType": "Appointment",
  "meta": {
    "profile": [
      "https://pta.kanta.fi/fhir/StructureDefinition/AppointmentAppointment"
    ],
    "security": [
      {
        "system": "https://pta.kanta.fi/fhir/CodeSystem/fipta-cs-visibletocustodian",
        "code": "1",
        "display": "Huoltaja saa käsitellä ajanvaraustietoja"
      }
    ],
    "versionId": "1",
    "lastUpdated": "2025-04-17T05:50:14.515+00:00"
  },
  "text": {
    "status": "generated",
    "div": "&lt;div xmlns=\"http://www.w3.org/1999/xhtml\" lang=\"fi\"&gt;&lt;p&gt;Asiakkaan sukunimi: Koski&lt;br /&gt;Asiakkaan etunimet: Iida Maria&lt;br /&gt;Asiakkaan henkilötunnus: 300111A9001&lt;br /&gt;&lt;/p&gt;&lt;p&gt;Ajanvarauksen tila: Varattu&lt;br /&gt;Ajanvarauksen alkamishetki: 10.6.2023 09:00&lt;br /&gt;Ajanvarauksen päättymishetki: 10.6.2023 11:00&lt;br /&gt;&lt;/p&gt;&lt;p&gt;Ajanvarauksen vastuuyksikön nimi: Hämeen hyvinvointialue&lt;br /&gt;Palvelun toteuttavan yksikön nimi: Diabeteshoitajan vastaanotto, Kirkonkylän sosiaali- ja terveystoimi&lt;br /&gt;&lt;/p&gt;&lt;p&gt;Palvelun otsikko: Ajanvaraus terveydenhoitajalle&lt;br /&gt;Palvelun luokka: Terveysneuvonta&lt;br /&gt;&lt;/p&gt;&lt;/div&gt;"
  },
  "contained": [
    {
      "resourceType": "Patient",
      "id": "PAT1",
      "meta": {
        "profile": [
          "https://pta.kanta.fi/fhir/StructureDefinition/AppointmentPatient"
        ]
      },
      "identifier": [
        {
          "use": "official",
          "system": "urn:oid:1.2.246.21",
          "value": "300111A9001"
        },
        {
          "use": "old",
          "system": "urn:oid:1.2.246.10.12345678.22.2023",
          "value": "1122"
        }
      ],
      "name": [
        {
          "use": "official",
          "family": "Koski",
          "given": [
            "Iida",
            "Maria"
          ]
        }
      ]
    },
    {
      "resourceType": "Organization",
      "id": "ORG-UNIT1",
      "meta": {
        "profile": [
          "https://pta.kanta.fi/fhir/StructureDefinition/AppointmentOrganization"
        ]
      },
      "identifier": [
        {
          "system": "urn:ietf:rfc:3986",
          "value": "urn:oid:1.2.246.10.99999773.10.20.1010"
        }
      ],
      "name": "Diabeteshoitajan vastaanotto, Kirkonkylän sosiaali- ja terveystoimi",
      "partOf": {
        "identifier": {
          "system": "urn:ietf:rfc:3986",
          "value": "urn:oid:1.2.246.10.99999773.10.0"
        },
        "display": "Hämeen hyvinvointialue"
      }
    },
    {
      "resourceType": "HealthcareService",
      "id": "HEALTHCARESERVICE1",
      "meta": {
        "profile": [
          "https://pta.kanta.fi/fhir/StructureDefinition/AppointmentHealthcareService"
        ]
      },
      "providedBy": {
        "reference": "#ORG-UNIT1"
      },
      "category": [
        {
          "coding": [
            {
              "system": "urn:oid:1.2.246.537.6.50.202401",
              "code": "SOTE2.1",
              "display": "Terveysneuvonta"
            }
          ]
        }
      ],
      "name": "Ajanvaraus terveydenhoitajalle"
    }
  ],
  "identifier": [
    {
      "system": "http://organisaationmaarittelemanimiavaruus.fi",
      "value": "12345"
    }
  ],
  "status": "booked",
  "start": "2023-06-10T09:00:00+00:00",
  "end": "2023-06-10T11:00:00+00:00",
  "participant": [
    {
      "type": [
        {
          "coding": [
            {
              "system": "https://pta.kanta.fi/fhir/CodeSystem/fipta-cs-appointmenttypecategory",
              "code": "1",
              "display": "Asiakas tai potilas, jota resurssi koskee"
            }
          ]
        }
      ],
      "actor": {
        "reference": "#PAT1"
      },
      "status": "accepted"
    },
    {
      "type": [
        {
          "coding": [
            {
              "system": "https://pta.kanta.fi/fhir/CodeSystem/fipta-cs-appointmenttypecategory",
              "code": "2",
              "display": "Terveydenhuollon palvelu, johon ajanvaraus kohdistuu"
            }
          ]
        }
      ],
      "actor": {
        "reference": "#HEALTHCARESERVICE1"
      },
      "status": "accepted"
    }
  ],
  "id": "f7bf2300-912c-4dd0-ae92-84ab50396dbe"
} 
 </msg>
<msg time="2025-05-12T13:53:51.913735" level="INFO">/Library/Frameworks/Python.framework/Versions/3.13/lib/python3.13/site-packages/urllib3/connectionpool.py:1097: InsecureRequestWarning: Unverified HTTPS request is being made to host 'fhir.simplifier.net'. Adding certificate verification is strongly advised. See: https://urllib3.readthedocs.io/en/latest/advanced-usage.html#tls-warnings
  warnings.warn(</msg>
<msg time="2025-05-12T13:53:51.914013" level="INFO">${resp} = &lt;Response [200]&gt;</msg>
<var>${resp}</var>
<arg>fhir</arg>
<arg>/Appointment/${APPT_ID}</arg>
<arg>headers=${hdrs}</arg>
<doc>Sends a GET request on a previously created HTTP Session.</doc>
<status status="PASS" start="2025-05-12T13:53:51.509119" elapsed="0.404930"/>
</kw>
<kw name="Status Should Be" owner="RequestsLibrary">
<arg>200</arg>
<arg>${resp}</arg>
<doc>Fails if response status code is different than the expected.</doc>
<status status="PASS" start="2025-05-12T13:53:51.914486" elapsed="0.000583"/>
</kw>
<kw name="Set Variable" owner="BuiltIn">
<msg time="2025-05-12T13:53:51.916718" level="INFO">${json} = {'resourceType': 'Appointment', 'meta': {'profile': ['https://pta.kanta.fi/fhir/StructureDefinition/AppointmentAppointment'], 'security': [{'system': 'https://pta.kanta.fi/fhir/CodeSystem/fipta-cs-vis...</msg>
<var>${json}</var>
<arg>${resp.json()}</arg>
<doc>Returns the given values which can then be assigned to a variables.</doc>
<status status="PASS" start="2025-05-12T13:53:51.915480" elapsed="0.001277"/>
</kw>
<kw name="Should Be Equal" owner="BuiltIn">
<arg>${json['resourceType']}</arg>
<arg>Appointment</arg>
<doc>Fails if the given objects are unequal.</doc>
<status status="PASS" start="2025-05-12T13:53:51.916979" elapsed="0.000610"/>
</kw>
<kw name="Should Be Equal" owner="BuiltIn">
<arg>${json['id']}</arg>
<arg>${APPT_ID}</arg>
<doc>Fails if the given objects are unequal.</doc>
<status status="PASS" start="2025-05-12T13:53:51.917758" elapsed="0.000544"/>
</kw>
<kw name="Should Be Equal" owner="BuiltIn">
<arg>${json['status']}</arg>
<arg>booked</arg>
<doc>Fails if the given objects are unequal.</doc>
<status status="PASS" start="2025-05-12T13:53:51.918459" elapsed="0.000418"/>
</kw>
<kw name="Get From List" owner="Collections">
<msg time="2025-05-12T13:53:51.919396" level="INFO">${first} = {'resourceType': 'Patient', 'id': 'PAT1', 'meta': {'profile': ['https://pta.kanta.fi/fhir/StructureDefinition/AppointmentPatient']}, 'identifier': [{'use': 'official', 'system': 'urn:oid:1.2.246.21', ...</msg>
<var>${first}</var>
<arg>${json['contained']}</arg>
<arg>0</arg>
<doc>Returns the value specified with an ``index`` from ``list``.</doc>
<status status="PASS" start="2025-05-12T13:53:51.919015" elapsed="0.000406"/>
</kw>
<kw name="Get From List" owner="Collections">
<msg time="2025-05-12T13:53:51.919933" level="INFO">${ident0} = {'use': 'official', 'system': 'urn:oid:1.2.246.21', 'value': '300111A9001'}</msg>
<var>${ident0}</var>
<arg>${first['identifier']}</arg>
<arg>0</arg>
<doc>Returns the value specified with an ``index`` from ``list``.</doc>
<status status="PASS" start="2025-05-12T13:53:51.919581" elapsed="0.000376"/>
</kw>
<kw name="Should Be Equal" owner="BuiltIn">
<arg>${ident0['value']}</arg>
<arg>300111A9001</arg>
<doc>Fails if the given objects are unequal.</doc>
<status status="PASS" start="2025-05-12T13:53:51.920084" elapsed="0.000393"/>
</kw>
<kw name="Get From List" owner="Collections">
<msg time="2025-05-12T13:53:51.920970" level="INFO">${second} = {'type': [{'coding': [{'system': 'https://pta.kanta.fi/fhir/CodeSystem/fipta-cs-appointmenttypecategory', 'code': '2', 'display': 'Terveydenhuollon palvelu, johon ajanvaraus kohdistuu'}]}], 'actor': {...</msg>
<var>${second}</var>
<arg>${json['participant']}</arg>
<arg>1</arg>
<doc>Returns the value specified with an ``index`` from ``list``.</doc>
<status status="PASS" start="2025-05-12T13:53:51.920613" elapsed="0.000380"/>
</kw>
<kw name="Get From List" owner="Collections">
<msg time="2025-05-12T13:53:51.921454" level="INFO">${coding} = {'system': 'https://pta.kanta.fi/fhir/CodeSystem/fipta-cs-appointmenttypecategory', 'code': '2', 'display': 'Terveydenhuollon palvelu, johon ajanvaraus kohdistuu'}</msg>
<var>${coding}</var>
<arg>${second['type'][0]['coding']}</arg>
<arg>0</arg>
<doc>Returns the value specified with an ``index`` from ``list``.</doc>
<status status="PASS" start="2025-05-12T13:53:51.921110" elapsed="0.000366"/>
</kw>
<kw name="Should Be Equal" owner="BuiltIn">
<arg>${coding['code']}</arg>
<arg>2</arg>
<doc>Fails if the given objects are unequal.</doc>
<status status="PASS" start="2025-05-12T13:53:51.921595" elapsed="0.000386"/>
</kw>
<kw name="Should Match Regexp" owner="BuiltIn">
<arg>${json['start']}</arg>
<arg>2023-06-10T\\d{2}:\\d{2}:\\d{2}\\+00:00</arg>
<doc>Fails if ``string`` does not match ``pattern`` as a regular expression.</doc>
<status status="PASS" start="2025-05-12T13:53:51.922101" elapsed="0.000571"/>
</kw>
<doc>Hae Appointment-resurssi ja tarkista keskeiset kentät JSON-vastauksesta</doc>
<status status="PASS" start="2025-05-12T13:53:51.508353" elapsed="0.414507"/>
</test>
<status status="PASS" start="2025-05-12T13:53:51.478010" elapsed="0.445324"/>
</suite>
<suite id="s1-s2" name="Login Test2" source="/Users/juhojaatinen/robotframework-qa-demo/login_test2.robot">
<test id="s1-s2-t1" name="Wikipedia Page Should Load Successfully" line="8">
<kw name="Open Browser" owner="SeleniumLibrary">
<msg time="2025-05-12T13:53:51.978149" level="INFO">Opening browser 'chrome' to base url 'https://www.wikipedia.org'.</msg>
<msg time="2025-05-12T13:53:52.068931" level="WARN">The chromedriver version (135.0.7049.84) detected in PATH at /opt/homebrew/bin/chromedriver might not be compatible with the detected chrome version (136.0.7103.93); currently, chromedriver 136.0.7103.92 is recommended for chrome 136.*, so it is advised to delete the driver in PATH and retry</msg>
<arg>${URL}</arg>
<arg>chrome</arg>
<doc>Opens a new browser instance to the optional ``url``.</doc>
<status status="PASS" start="2025-05-12T13:53:51.978041" elapsed="1.122010"/>
</kw>
<kw name="Title Should Be" owner="SeleniumLibrary">
<msg time="2025-05-12T13:53:53.102985" level="INFO">Page title is 'Wikipedia'.</msg>
<arg>Wikipedia</arg>
<doc>Verifies that the current page title equals ``title``.</doc>
<status status="PASS" start="2025-05-12T13:53:53.100547" elapsed="0.002490"/>
</kw>
<kw name="Close Browser" owner="SeleniumLibrary" type="TEARDOWN">
<doc>Closes the current browser.</doc>
<status status="PASS" start="2025-05-12T13:53:53.103318" elapsed="0.071545"/>
</kw>
<status status="PASS" start="2025-05-12T13:53:51.977751" elapsed="1.197197"/>
</test>
<status status="PASS" start="2025-05-12T13:53:51.923792" elapsed="1.251369"/>
</suite>
<suite id="s1-s3" name="Tests" source="/Users/juhojaatinen/robotframework-qa-demo/tests">
<suite id="s1-s3-s1" name="Api" source="/Users/juhojaatinen/robotframework-qa-demo/tests/api">
<suite id="s1-s3-s1-s1" name="Reqres User Tests" source="/Users/juhojaatinen/robotframework-qa-demo/tests/api/reqres_user_tests.robot">
<kw name="Setup Reqres Session" type="SETUP">
<kw name="Delete All Sessions" owner="RequestsLibrary">
<msg time="2025-05-12T13:53:53.177043" level="INFO">Deleting All Sessions</msg>
<doc>Removes all the session objects</doc>
<status status="PASS" start="2025-05-12T13:53:53.177010" elapsed="0.000085"/>
</kw>
<kw name="Create Session" owner="RequestsLibrary">
<msg time="2025-05-12T13:53:53.177231" level="INFO">Creating Session using : alias=reqres, url=https://reqres.in, headers={},                     cookies={}, auth=None, timeout=None, proxies=None, verify=False,                     debug=0 </msg>
<arg>reqres</arg>
<arg>${BASE_URL}</arg>
<arg>verify=False</arg>
<doc>Create Session: create a HTTP session to a server</doc>
<status status="PASS" start="2025-05-12T13:53:53.177141" elapsed="0.000176"/>
</kw>
<status status="PASS" start="2025-05-12T13:53:53.176912" elapsed="0.000434"/>
</kw>
<test id="s1-s3-s1-s1-t1" name="Get List Of Users Should Return 200" line="17">
<kw name="GET On Session" owner="RequestsLibrary">
<msg time="2025-05-12T13:53:53.305356" level="INFO">GET Request : url=https://reqres.in/api/users?page=2 
 path_url=/api/users?page=2 
 headers={'User-Agent': 'python-requests/2.32.3', 'Accept-Encoding': 'gzip, deflate', 'Accept': '*/*', 'Connection': 'keep-alive'} 
 body=None 
 </msg>
<msg time="2025-05-12T13:53:53.305486" level="INFO">GET Response : url=https://reqres.in/api/users?page=2 
 status=200, reason=OK 
 headers={'Date': 'Mon, 12 May 2025 10:53:53 GMT', 'Content-Type': 'application/json; charset=utf-8', 'Transfer-Encoding': 'chunked', 'Connection': 'keep-alive', 'Cf-Ray': '93e95ff80e788d54-HEL', 'Server': 'cloudflare', 'Content-Encoding': 'gzip', 'Report-To': '{"group":"heroku-nel","max_age":3600,"endpoints":[{"url":"https://nel.heroku.com/reports?ts=1747041467&amp;sid=c4c9725f-1ab0-44d8-820f-430df2718e11&amp;s=A7SIWueGFg6mMNiDoGtCwsVptQVJ%2FHsMkirWWeCG5DU%3D"}]}', 'Reporting-Endpoints': 'heroku-nel=https://nel.heroku.com/reports?ts=1747041467&amp;sid=c4c9725f-1ab0-44d8-820f-430df2718e11&amp;s=A7SIWueGFg6mMNiDoGtCwsVptQVJ%2FHsMkirWWeCG5DU%3D', 'Nel': '{"report_to":"heroku-nel","max_age":3600,"success_fraction":0.005,"failure_fraction":0.05,"response_headers":["Via"]}', 'X-Powered-By': 'Express', 'Access-Control-Allow-Origin': '*', 'Ratelimit-Policy': '100;w=60', 'Ratelimit-Limit': '100', 'Ratelimit-Remaining': '98', 'Ratelimit-Reset': '60', 'Etag': 'W/"440-ZjsmMKR8P3usr2uJZbOCGCxC3Uw"', 'Via': '1.1 vegur', 'Cache-Control': 'max-age=14400', 'Cf-Cache-Status': 'HIT', 'Age': '5765', 'Vary': 'Accept-Encoding', 'server-timing': 'cfL4;desc="?proto=TCP&amp;rtt=4435&amp;min_rtt=4412&amp;rtt_var=1700&amp;sent=5&amp;recv=6&amp;lost=0&amp;retrans=0&amp;sent_bytes=2837&amp;recv_bytes=775&amp;delivery_rate=879895&amp;cwnd=252&amp;unsent_bytes=0&amp;cid=a8812911ae17cc62&amp;ts=99&amp;x=0"'} 
 body={"page":2,"per_page":6,"total":12,"total_pages":2,"data":[{"id":7,"email":"michael.lawson@reqres.in","first_name":"Michael","last_name":"Lawson","avatar":"https://reqres.in/img/faces/7-image.jpg"},{"id":8,"email":"lindsay.ferguson@reqres.in","first_name":"Lindsay","last_name":"Ferguson","avatar":"https://reqres.in/img/faces/8-image.jpg"},{"id":9,"email":"tobias.funke@reqres.in","first_name":"Tobias","last_name":"Funke","avatar":"https://reqres.in/img/faces/9-image.jpg"},{"id":10,"email":"byron.fields@reqres.in","first_name":"Byron","last_name":"Fields","avatar":"https://reqres.in/img/faces/10-image.jpg"},{"id":11,"email":"george.edwards@reqres.in","first_name":"George","last_name":"Edwards","avatar":"https://reqres.in/img/faces/11-image.jpg"},{"id":12,"email":"rachel.howell@reqres.in","first_name":"Rachel","last_name":"Howell","avatar":"https://reqres.in/img/faces/12-image.jpg"}],"support":{"url":"https://contentcaddy.io?utm_source=reqres&amp;utm_medium=json&amp;utm_campaign=referral","text":"Tired of writing endless social media content? Let Content Caddy generate it for you."}} 
 </msg>
<msg time="2025-05-12T13:53:53.306372" level="INFO">/Library/Frameworks/Python.framework/Versions/3.13/lib/python3.13/site-packages/urllib3/connectionpool.py:1097: InsecureRequestWarning: Unverified HTTPS request is being made to host 'reqres.in'. Adding certificate verification is strongly advised. See: https://urllib3.readthedocs.io/en/latest/advanced-usage.html#tls-warnings
  warnings.warn(</msg>
<msg time="2025-05-12T13:53:53.306474" level="INFO">${resp} = &lt;Response [200]&gt;</msg>
<var>${resp}</var>
<arg>reqres</arg>
<arg>/api/users</arg>
<arg>params=page=2</arg>
<doc>Sends a GET request on a previously created HTTP Session.</doc>
<status status="PASS" start="2025-05-12T13:53:53.177572" elapsed="0.128921"/>
</kw>
<kw name="Should Be Equal As Integers" owner="BuiltIn">
<msg time="2025-05-12T13:53:53.306996" level="INFO">Argument types are:
&lt;class 'int'&gt;
&lt;class 'str'&gt;</msg>
<arg>${resp.status_code}</arg>
<arg>200</arg>
<doc>Fails if objects are unequal after converting them to integers.</doc>
<status status="PASS" start="2025-05-12T13:53:53.306634" elapsed="0.000406"/>
</kw>
<kw name="Set Variable" owner="BuiltIn">
<msg time="2025-05-12T13:53:53.307425" level="INFO">${json} = {'page': 2, 'per_page': 6, 'total': 12, 'total_pages': 2, 'data': [{'id': 7, 'email': 'michael.lawson@reqres.in', 'first_name': 'Michael', 'last_name': 'Lawson', 'avatar': 'https://reqres.in/img/faces...</msg>
<var>${json}</var>
<arg>${resp.json()}</arg>
<doc>Returns the given values which can then be assigned to a variables.</doc>
<status status="PASS" start="2025-05-12T13:53:53.307134" elapsed="0.000308"/>
</kw>
<kw name="Should Be Equal As Integers" owner="BuiltIn">
<msg time="2025-05-12T13:53:53.307753" level="INFO">Argument types are:
&lt;class 'int'&gt;
&lt;class 'str'&gt;</msg>
<arg>${json['page']}</arg>
<arg>2</arg>
<doc>Fails if objects are unequal after converting them to integers.</doc>
<status status="PASS" start="2025-05-12T13:53:53.307516" elapsed="0.000269"/>
</kw>
<doc>GET /api/users?page=2 → 200 OK ja “page”:2 vastauksessa</doc>
<status status="PASS" start="2025-05-12T13:53:53.177370" elapsed="0.130499"/>
</test>
<kw name="Delete All Sessions" owner="RequestsLibrary" type="TEARDOWN">
<msg time="2025-05-12T13:53:53.308122" level="INFO">Deleting All Sessions</msg>
<doc>Removes all the session objects</doc>
<status status="PASS" start="2025-05-12T13:53:53.308076" elapsed="0.000085"/>
</kw>
<doc>Reqres.in – täydellinen CRUD‐testipaketti</doc>
<status status="PASS" start="2025-05-12T13:53:53.176314" elapsed="0.131866"/>
</suite>
<status status="PASS" start="2025-05-12T13:53:53.176004" elapsed="0.132604"/>
</suite>
<suite id="s1-s3-s2" name="Ui" source="/Users/juhojaatinen/robotframework-qa-demo/tests/ui">
<suite id="s1-s3-s2-s1" name="Javascript Console Check" source="/Users/juhojaatinen/robotframework-qa-demo/tests/ui/javascript_console_check.robot">
<test id="s1-s3-s2-s1-t1" name="No JS Errors On Robot Framework Page" line="11">
<kw name="Open Browser" owner="SeleniumLibrary">
<msg time="2025-05-12T13:53:53.311203" level="INFO">Opening browser 'chrome' to base url 'https://robotframework.org'.</msg>
<msg time="2025-05-12T13:53:53.361995" level="WARN">The chromedriver version (135.0.7049.84) detected in PATH at /opt/homebrew/bin/chromedriver might not be compatible with the detected chrome version (136.0.7103.93); currently, chromedriver 136.0.7103.92 is recommended for chrome 136.*, so it is advised to delete the driver in PATH and retry</msg>
<arg>https://robotframework.org</arg>
<arg>${BROWSER}</arg>
<arg>options=${OPTIONS}</arg>
<doc>Opens a new browser instance to the optional ``url``.</doc>
<status status="PASS" start="2025-05-12T13:53:53.311031" elapsed="0.820520"/>
</kw>
<kw name="Execute Javascript" owner="SeleniumLibrary">
<msg time="2025-05-12T13:53:54.132099" level="INFO">Executing JavaScript:
return window.console.error || null;
Without any arguments.</msg>
<msg time="2025-05-12T13:53:54.133770" level="INFO">${logs} = {}</msg>
<var>${logs}</var>
<arg>return window.console.error || null;</arg>
<doc>Executes the given JavaScript code with possible arguments.</doc>
<status status="PASS" start="2025-05-12T13:53:54.131821" elapsed="0.001964"/>
</kw>
<kw name="Should Be Empty" owner="BuiltIn">
<msg time="2025-05-12T13:53:54.133937" level="INFO">Length is 0.</msg>
<arg>${logs}</arg>
<doc>Verifies that the given item is empty.</doc>
<status status="PASS" start="2025-05-12T13:53:54.133866" elapsed="0.000089"/>
</kw>
<kw name="Close Browser" owner="SeleniumLibrary" type="TEARDOWN">
<doc>Closes the current browser.</doc>
<status status="PASS" start="2025-05-12T13:53:54.134052" elapsed="0.077879"/>
</kw>
<status status="PASS" start="2025-05-12T13:53:53.310807" elapsed="0.901195"/>
</test>
<status status="PASS" start="2025-05-12T13:53:53.309504" elapsed="0.902695"/>
</suite>
<suite id="s1-s3-s2-s2" name="Login Test" source="/Users/juhojaatinen/robotframework-qa-demo/tests/ui/login_test.robot">
<test id="s1-s3-s2-s2-t1" name="Wikipedia Page Should Load Successfully" line="5">
<kw name="Open Browser" owner="SeleniumLibrary">
<msg time="2025-05-12T13:53:54.213437" level="INFO">Opening browser 'chrome' to base url 'https://www.wikipedia.org'.</msg>
<msg time="2025-05-12T13:53:54.294813" level="WARN">The chromedriver version (135.0.7049.84) detected in PATH at /opt/homebrew/bin/chromedriver might not be compatible with the detected chrome version (136.0.7103.93); currently, chromedriver 136.0.7103.92 is recommended for chrome 136.*, so it is advised to delete the driver in PATH and retry</msg>
<arg>https://www.wikipedia.org</arg>
<arg>chrome</arg>
<arg>options=add_argument("--headless"); add_argument("--no-sandbox"); add_argument("--disable-dev-shm-usage")</arg>
<doc>Opens a new browser instance to the optional ``url``.</doc>
<status status="PASS" start="2025-05-12T13:53:54.213354" elapsed="0.609143"/>
</kw>
<kw name="Title Should Be" owner="SeleniumLibrary">
<msg time="2025-05-12T13:53:54.824789" level="INFO">Page title is 'Wikipedia'.</msg>
<arg>Wikipedia</arg>
<doc>Verifies that the current page title equals ``title``.</doc>
<status status="PASS" start="2025-05-12T13:53:54.822820" elapsed="0.002000"/>
</kw>
<kw name="Close Browser" owner="SeleniumLibrary" type="TEARDOWN">
<doc>Closes the current browser.</doc>
<status status="PASS" start="2025-05-12T13:53:54.824968" elapsed="0.069184"/>
</kw>
<status status="PASS" start="2025-05-12T13:53:54.213207" elapsed="0.681019"/>
</test>
<status status="PASS" start="2025-05-12T13:53:54.212423" elapsed="0.681993"/>
</suite>
<status status="PASS" start="2025-05-12T13:53:53.308819" elapsed="1.585831"/>
</suite>
<status status="PASS" start="2025-05-12T13:53:53.175366" elapsed="1.719450"/>
</suite>
<status status="PASS" start="2025-05-12T13:53:51.470463" elapsed="3.424519"/>
</suite>
<statistics>
<total>
<stat pass="5" fail="0" skip="0">All Tests</stat>
</total>
<tag>
</tag>
<suite>
<stat name="Robotframework-Qa-Demo" id="s1" pass="5" fail="0" skip="0">Robotframework-Qa-Demo</stat>
<stat name="Fhir" id="s1-s1" pass="1" fail="0" skip="0">Robotframework-Qa-Demo.Fhir</stat>
<stat name="Login Test2" id="s1-s2" pass="1" fail="0" skip="0">Robotframework-Qa-Demo.Login Test2</stat>
<stat name="Tests" id="s1-s3" pass="3" fail="0" skip="0">Robotframework-Qa-Demo.Tests</stat>
<stat name="Api" id="s1-s3-s1" pass="1" fail="0" skip="0">Robotframework-Qa-Demo.Tests.Api</stat>
<stat name="Reqres User Tests" id="s1-s3-s1-s1" pass="1" fail="0" skip="0">Robotframework-Qa-Demo.Tests.Api.Reqres User Tests</stat>
<stat name="Ui" id="s1-s3-s2" pass="2" fail="0" skip="0">Robotframework-Qa-Demo.Tests.Ui</stat>
<stat name="Javascript Console Check" id="s1-s3-s2-s1" pass="1" fail="0" skip="0">Robotframework-Qa-Demo.Tests.Ui.Javascript Console Check</stat>
<stat name="Login Test" id="s1-s3-s2-s2" pass="1" fail="0" skip="0">Robotframework-Qa-Demo.Tests.Ui.Login Test</stat>
</suite>
</statistics>
<errors>
<msg time="2025-05-12T13:53:52.068931" level="WARN">The chromedriver version (135.0.7049.84) detected in PATH at /opt/homebrew/bin/chromedriver might not be compatible with the detected chrome version (136.0.7103.93); currently, chromedriver 136.0.7103.92 is recommended for chrome 136.*, so it is advised to delete the driver in PATH and retry</msg>
<msg time="2025-05-12T13:53:53.361995" level="WARN">The chromedriver version (135.0.7049.84) detected in PATH at /opt/homebrew/bin/chromedriver might not be compatible with the detected chrome version (136.0.7103.93); currently, chromedriver 136.0.7103.92 is recommended for chrome 136.*, so it is advised to delete the driver in PATH and retry</msg>
<msg time="2025-05-12T13:53:54.294813" level="WARN">The chromedriver version (135.0.7049.84) detected in PATH at /opt/homebrew/bin/chromedriver might not be compatible with the detected chrome version (136.0.7103.93); currently, chromedriver 136.0.7103.92 is recommended for chrome 136.*, so it is advised to delete the driver in PATH and retry</msg>
</errors>
</robot>
